<svg xmlns="http://www.w3.org/2000/svg" width="15.3" height="15" viewBox="0 0 15.3 15">
  <g id="icon-logout" transform="translate(0 1)">
    <path id="Pfad_81" data-name="Pfad 81" d="M443.5,1068.024v3.476h9.8v-13h-9.8v3.476" transform="translate(-439 -1058.5)" fill="none" stroke="#9c9e9f" stroke-linejoin="round" stroke-width="2"/>
    <g id="Gruppe_482" data-name="Gruppe 482" transform="translate(1 0.5)">
      <rect id="Rechteck_48" data-name="Rechteck 48" width="2.11" height="2.11" transform="translate(6.966 4.5) rotate(45)" fill="#9c9e9f"/>
      <path id="Pfad_142" data-name="Pfad 142" d="M-3,0H4.965V3H-3Z" transform="translate(2 4.5)" fill="#9c9e9f"/>
    </g>
  </g>
</svg>
